<?xml version="1.0" encoding="utf-8"?>
<!-- Generator: Adobe Illustrator 15.1.0, SVG Export Plug-In . SVG Version: 6.00 Build 0)  -->
<!DOCTYPE svg PUBLIC "-//W3C//DTD SVG 1.1//EN" "http://www.w3.org/Graphics/SVG/1.1/DTD/svg11.dtd" [
	<!ENTITY ns_extend "http://ns.adobe.com/Extensibility/1.0/">
	<!ENTITY ns_ai "http://ns.adobe.com/AdobeIllustrator/10.0/">
	<!ENTITY ns_graphs "http://ns.adobe.com/Graphs/1.0/">
	<!ENTITY ns_vars "http://ns.adobe.com/Variables/1.0/">
	<!ENTITY ns_imrep "http://ns.adobe.com/ImageReplacement/1.0/">
	<!ENTITY ns_sfw "http://ns.adobe.com/SaveForWeb/1.0/">
	<!ENTITY ns_custom "http://ns.adobe.com/GenericCustomNamespace/1.0/">
	<!ENTITY ns_adobe_xpath "http://ns.adobe.com/XPath/1.0/">
]>
<svg version="1.1" id="Layer_1" xmlns:x="&ns_extend;" xmlns:i="&ns_ai;" xmlns:graph="&ns_graphs;"
	 xmlns="http://www.w3.org/2000/svg" xmlns:xlink="http://www.w3.org/1999/xlink" x="0px" y="0px" width="52px" height="52px"
	 viewBox="-11.1 -0.9 52 52" style="enable-background:new -11.1 -0.9 52 52;" xml:space="preserve">
<style type="text/css">
<![CDATA[
	.st0{fill:#FFFFFF;}
	.st1{fill:none;}
]]>
</style>
<metadata>
	<sfw  xmlns="&ns_sfw;">
		<slices></slices>
		<sliceSourceBounds  height="52" width="52" x="223.5" y="224.5" bottomLeftOrigin="true"></sliceSourceBounds>
	</sfw>
</metadata>
<g>
	<g>
		<g>
			<path class="st0" d="M15.1,2.6c-9.4,0-14.3,6.8-14.3,13c0,6.9,7,11.4,7,22.7H15c0,0,6.7,0,6.8,0C22.1,26.9,29,22.4,29,15.6
				C29,9.8,24.5,2.6,15.1,2.6z M9.7,46.5c0,0,0,0.8,0,1.6s0.8,1.6,1.8,1.6h6.9c0.9,0,1.8-0.8,1.8-1.6s-0.1-1.6-0.1-1.6H9.7z M21,40
				H8.9C8.4,40,8,40.4,8,40.8c0,0.5,0.4,0.8,0.8,0.8H21c0.5,0,0.8-0.4,0.8-0.8C21.9,40.4,21.5,40,21,40z M21,43.2H8.9
				C8.4,43.2,8,43.5,8,44s0.4,0.8,0.8,0.8H21c0.5,0,0.8-0.4,0.8-0.8S21.5,43.2,21,43.2z"/>
		</g>
	</g>
	<rect x="-11.1" y="-0.9" class="st1" width="52" height="52"/>
</g>
</svg>
