<?xml version="1.0" encoding="utf-8"?>
<!-- Generator: Adobe Illustrator 15.1.0, SVG Export Plug-In . SVG Version: 6.00 Build 0)  -->
<!DOCTYPE svg PUBLIC "-//W3C//DTD SVG 1.1//EN" "http://www.w3.org/Graphics/SVG/1.1/DTD/svg11.dtd" [
	<!ENTITY ns_extend "http://ns.adobe.com/Extensibility/1.0/">
	<!ENTITY ns_ai "http://ns.adobe.com/AdobeIllustrator/10.0/">
	<!ENTITY ns_graphs "http://ns.adobe.com/Graphs/1.0/">
	<!ENTITY ns_vars "http://ns.adobe.com/Variables/1.0/">
	<!ENTITY ns_imrep "http://ns.adobe.com/ImageReplacement/1.0/">
	<!ENTITY ns_sfw "http://ns.adobe.com/SaveForWeb/1.0/">
	<!ENTITY ns_custom "http://ns.adobe.com/GenericCustomNamespace/1.0/">
	<!ENTITY ns_adobe_xpath "http://ns.adobe.com/XPath/1.0/">
]>
<svg version="1.1" id="Layer_1" xmlns:x="&ns_extend;" xmlns:i="&ns_ai;" xmlns:graph="&ns_graphs;"
	 xmlns="http://www.w3.org/2000/svg" xmlns:xlink="http://www.w3.org/1999/xlink" x="0px" y="0px" width="52px" height="52px"
	 viewBox="-2.1 -4.5 52 52" style="enable-background:new -2.1 -4.5 52 52;" xml:space="preserve">
<style type="text/css">
<![CDATA[
	.st0{fill:#FFFFFF;}
	.st1{fill:none;}
]]>
</style>
<metadata>
	<sfw  xmlns="&ns_sfw;">
		<slices></slices>
		<sliceSourceBounds  height="52" width="52" x="223.5" y="224.5" bottomLeftOrigin="true"></sliceSourceBounds>
	</sfw>
</metadata>
<g>
	<path class="st0" d="M47,29.1c-1.1,0.7-2.5,0.5-3.2-0.6l-15-22.9c-0.7-1.1-0.4-2.5,0.6-3.2c1-0.7,2.5-0.4,3.2,0.6l15,23
		C48.3,27,48,28.5,47,29.1z M35.7,32.9c0.9,1.4,0.5,3.3-0.9,4.2l-11.4,7.5c-1.4,0.9-3.3,0.5-4.2-0.9l-3.3-5L10.1,41l-6-9.2L28,7.1
		l14.1,21.7l-7.3,2.8L35.7,32.9z M33.4,32.1l-16,6.1l3.1,4.7c0.5,0.7,1.4,0.9,2.1,0.4L34,35.9c0.7-0.5,0.9-1.4,0.4-2.1L33.4,32.1z
		 M8.3,43.8c-0.7,0.5-1.6,0.3-2.1-0.4l-5.9-8.9c-0.5-0.7-0.3-1.6,0.4-2.1c0.7-0.5,1.6-0.3,2.1,0.4l5.9,8.9C9.2,42.4,9,43.3,8.3,43.8
		z"/>
	<rect x="-2.1" y="-4.5" class="st1" width="52" height="52"/>
</g>
</svg>
