<?xml version="1.0" encoding="utf-8"?>
<!-- Generator: Adobe Illustrator 15.1.0, SVG Export Plug-In . SVG Version: 6.00 Build 0)  -->
<!DOCTYPE svg PUBLIC "-//W3C//DTD SVG 1.1//EN" "http://www.w3.org/Graphics/SVG/1.1/DTD/svg11.dtd" [
	<!ENTITY ns_extend "http://ns.adobe.com/Extensibility/1.0/">
	<!ENTITY ns_ai "http://ns.adobe.com/AdobeIllustrator/10.0/">
	<!ENTITY ns_graphs "http://ns.adobe.com/Graphs/1.0/">
	<!ENTITY ns_vars "http://ns.adobe.com/Variables/1.0/">
	<!ENTITY ns_imrep "http://ns.adobe.com/ImageReplacement/1.0/">
	<!ENTITY ns_sfw "http://ns.adobe.com/SaveForWeb/1.0/">
	<!ENTITY ns_custom "http://ns.adobe.com/GenericCustomNamespace/1.0/">
	<!ENTITY ns_adobe_xpath "http://ns.adobe.com/XPath/1.0/">
]>
<svg version="1.1" id="Layer_1" xmlns:x="&ns_extend;" xmlns:i="&ns_ai;" xmlns:graph="&ns_graphs;"
	 xmlns="http://www.w3.org/2000/svg" xmlns:xlink="http://www.w3.org/1999/xlink" x="0px" y="0px" width="38px" height="19px"
	 viewBox="-19.2 -1.5 38 19" style="enable-background:new -19.2 -1.5 38 19;" xml:space="preserve">
<style type="text/css">
<![CDATA[
	.st0{fill:#22222E;}
	.st1{opacity:0.5;}
	.st2{fill:#FFFFFF;}
	.st3{fill:none;}
]]>
</style>
<metadata>
	<sfw  xmlns="&ns_sfw;">
		<slices></slices>
		<sliceSourceBounds  height="19" width="38" x="221" y="241" bottomLeftOrigin="true"></sliceSourceBounds>
	</sfw>
</metadata>
<g class="st1">
	<g>
		<path class="st0" d="M17.9,1.1c-0.7-0.9-2-0.9-3-0.8c-0.8,0.1-3.4,1.3-4.2,4c1.6-0.1,2.4,0.1,2.2,1.8c-0.1,0.8-0.5,1.5-0.9,2.2
			c-0.5,1-1.4,2.7-2.5,1.4C8.5,8.5,8.6,6.4,8.3,5C8.1,4.2,8,3.3,7.8,2.4C7.6,1.6,7,0.9,6.3,0.7C5.6,0.6,4.9,0.9,4.4,1.1
			c-1.6,1-2.6,2.2-4.1,3.3v0.1c0.5,0.3,0.4,0.7,0.8,0.8c1,0.1,1.8-0.9,2.4,0.2c0.3,0.6,0.4,1.2,0.7,1.9c0.4,1,0.6,1.9,0.9,3
			c0.5,1.7,1.1,4.5,2.5,5.1c0.8,0.4,1.9-0.1,2.5-0.5c1.6-1,2.9-2.3,4-3.8C16.6,7.9,18,4.2,18.2,3C18.4,2.3,18.4,1.5,17.9,1.1z"/>
		<rect x="-0.2" y="-1.5" class="st3" width="19" height="19"/>
	</g>
	<g>
		<path class="st2" d="M-1.1,1.1c-0.7-0.9-2-0.9-3-0.8c-0.8,0.1-3.4,1.3-4.2,4c1.6-0.1,2.4,0.1,2.2,1.8c-0.1,0.8-0.5,1.5-0.9,2.2
			c-0.5,1-1.4,2.7-2.5,1.4c-1.1-1.2-1-3.3-1.3-4.7c-0.2-0.9-0.3-1.7-0.5-2.6c-0.2-0.8-0.8-1.6-1.5-1.7c-0.7-0.1-1.5,0.2-1.9,0.5
			c-1.6,1-2.6,2.2-4.1,3.3v0.1c0.5,0.3,0.4,0.7,0.8,0.8c1,0.1,1.8-0.9,2.4,0.2c0.3,0.6,0.4,1.2,0.7,1.9c0.4,1,0.6,1.9,0.9,3
			c0.5,1.7,1.1,4.5,2.5,5.1c0.8,0.4,1.9-0.1,2.5-0.5c1.6-1,2.9-2.3,4-3.8C-2.4,7.9-1,4.2-0.8,3C-0.6,2.3-0.6,1.5-1.1,1.1z"/>
		<rect x="-19.2" y="-1.5" class="st3" width="19" height="19"/>
	</g>
</g>
</svg>
