<?xml version="1.0" encoding="utf-8"?>
<!-- Generator: Adobe Illustrator 15.1.0, SVG Export Plug-In . SVG Version: 6.00 Build 0)  -->
<!DOCTYPE svg PUBLIC "-//W3C//DTD SVG 1.1//EN" "http://www.w3.org/Graphics/SVG/1.1/DTD/svg11.dtd" [
	<!ENTITY ns_extend "http://ns.adobe.com/Extensibility/1.0/">
	<!ENTITY ns_ai "http://ns.adobe.com/AdobeIllustrator/10.0/">
	<!ENTITY ns_graphs "http://ns.adobe.com/Graphs/1.0/">
	<!ENTITY ns_vars "http://ns.adobe.com/Variables/1.0/">
	<!ENTITY ns_imrep "http://ns.adobe.com/ImageReplacement/1.0/">
	<!ENTITY ns_sfw "http://ns.adobe.com/SaveForWeb/1.0/">
	<!ENTITY ns_custom "http://ns.adobe.com/GenericCustomNamespace/1.0/">
	<!ENTITY ns_adobe_xpath "http://ns.adobe.com/XPath/1.0/">
]>
<svg version="1.1" id="Layer_1" xmlns:x="&ns_extend;" xmlns:i="&ns_ai;" xmlns:graph="&ns_graphs;"
	 xmlns="http://www.w3.org/2000/svg" xmlns:xlink="http://www.w3.org/1999/xlink" x="0px" y="0px" width="30px" height="30px"
	 viewBox="-1 -3.5 30 30" style="enable-background:new -1 -3.5 30 30;" xml:space="preserve">
<style type="text/css">
<![CDATA[
	.st0{fill:#FFFFFF;}
	.st1{fill:none;}
]]>
</style>
<metadata>
	<sfw  xmlns="&ns_sfw;">
		<slices></slices>
		<sliceSourceBounds  height="30" width="30" x="234.5" y="235.5" bottomLeftOrigin="true"></sliceSourceBounds>
	</sfw>
</metadata>
<g>
	<rect x="-1" y="-3.5" class="st1" width="30" height="30"/>
	<g>
		<g>
			<path class="st0" d="M26,3v16c0,1.1-0.9,2-2,2H3c0,1.1,0.9,2,2,2h21c1.1,0,2-0.9,2-2V5C28,3.9,27.1,3,26,3z M25,18V2
				c0-1.1-0.9-2-2-2H2C0.9,0,0,0.9,0,2v16c0,1.1,0.9,2,2,2h21C24.1,20,25,19.1,25,18z M2,2h21v16H2V2z M13.6,12.3l-3-3.2l-3,5.1
				l-2.2-2.3L3,17h19L17.7,5.8L13.6,12.3z M6,9c1.1,0,2-0.9,2-2S7.1,5,6,5S4,5.9,4,7S4.9,9,6,9z"/>
		</g>
	</g>
</g>
</svg>
