<?xml version="1.0" encoding="utf-8"?>
<!-- Generator: Adobe Illustrator 15.1.0, SVG Export Plug-In . SVG Version: 6.00 Build 0)  -->
<!DOCTYPE svg PUBLIC "-//W3C//DTD SVG 1.1//EN" "http://www.w3.org/Graphics/SVG/1.1/DTD/svg11.dtd" [
	<!ENTITY ns_extend "http://ns.adobe.com/Extensibility/1.0/">
	<!ENTITY ns_ai "http://ns.adobe.com/AdobeIllustrator/10.0/">
	<!ENTITY ns_graphs "http://ns.adobe.com/Graphs/1.0/">
	<!ENTITY ns_vars "http://ns.adobe.com/Variables/1.0/">
	<!ENTITY ns_imrep "http://ns.adobe.com/ImageReplacement/1.0/">
	<!ENTITY ns_sfw "http://ns.adobe.com/SaveForWeb/1.0/">
	<!ENTITY ns_custom "http://ns.adobe.com/GenericCustomNamespace/1.0/">
	<!ENTITY ns_adobe_xpath "http://ns.adobe.com/XPath/1.0/">
]>
<svg version="1.1" id="Layer_1" xmlns:x="&ns_extend;" xmlns:i="&ns_ai;" xmlns:graph="&ns_graphs;"
	 xmlns="http://www.w3.org/2000/svg" xmlns:xlink="http://www.w3.org/1999/xlink" x="0px" y="0px" width="83px" height="24px"
	 viewBox="-56.6 -1.3 83 24" style="enable-background:new -56.6 -1.3 83 24;" xml:space="preserve">
<style type="text/css">
<![CDATA[
	.st0{opacity:0.7;}
	.st1{fill:#FF4D4E;}
	.st2{fill:#FFFFFF;}
	.st3{fill:none;}
]]>
</style>
<metadata>
	<sfw  xmlns="&ns_sfw;">
		<slices></slices>
		<sliceSourceBounds  height="24" width="83" x="180" y="238.5" bottomLeftOrigin="true"></sliceSourceBounds>
	</sfw>
</metadata>
<g>
	<g>
		<g class="st0">
			<g>
				<path class="st2" d="M24.2,2.7H10.7V0H3.5v2.7H1.7c-1,0-1.8,0.8-1.8,1.8v15.2c0,1,0.8,1.8,1.8,1.8h22.4c1,0,1.8-0.8,1.8-1.8V4.5
					C25.9,3.5,25.2,2.7,24.2,2.7z M5.4,1.8H9v2.7H5.4V1.8z M9.9,18.8c-3.5,0-6.3-2.8-6.3-6.3s2.8-6.3,6.3-6.3s6.3,2.8,6.3,6.3
					S13.4,18.8,9.9,18.8z M21.9,8.5c-1,0-1.8-0.8-1.8-1.8s0.8-1.8,1.8-1.8s1.8,0.8,1.8,1.8S22.9,8.5,21.9,8.5z M9.9,8.6
					c-2.2,0-4,1.8-4,4c0,2.2,1.8,4,4,4c2.2,0,4-1.8,4-4C13.9,10.4,12.2,8.6,9.9,8.6z"/>
			</g>
		</g>
		<g>
			<g>
				<path class="st2" d="M-3.8,2.7h-13.4V0h-7.2v2.7h-1.8c-1,0-1.8,0.8-1.8,1.8v15.2c0,1,0.8,1.8,1.8,1.8h22.4c1,0,1.8-0.8,1.8-1.8
					V4.5C-2.1,3.5-2.8,2.7-3.8,2.7z M-22.6,1.8h3.6v2.7h-3.6V1.8z M-18.1,18.8c-3.5,0-6.3-2.8-6.3-6.3s2.8-6.3,6.3-6.3
					s6.3,2.8,6.3,6.3S-14.6,18.8-18.1,18.8z M-6.1,8.5c-1,0-1.8-0.8-1.8-1.8s0.8-1.8,1.8-1.8s1.8,0.8,1.8,1.8S-5.1,8.5-6.1,8.5z
					 M-18.1,8.6c-2.2,0-4,1.8-4,4c0,2.2,1.8,4,4,4c2.2,0,4-1.8,4-4C-14.1,10.4-15.8,8.6-18.1,8.6z"/>
			</g>
		</g>
		<g>
			<g>
				<path class="st1" d="M-31.8,2.7h-13.4V0h-7.2v2.7h-1.8c-1,0-1.8,0.8-1.8,1.8v15.2c0,1,0.8,1.8,1.8,1.8h22.4c1,0,1.8-0.8,1.8-1.8
					V4.5C-30.1,3.5-30.8,2.7-31.8,2.7z M-50.6,1.8h3.6v2.7h-3.6V1.8z M-46.1,18.8c-3.5,0-6.3-2.8-6.3-6.3s2.8-6.3,6.3-6.3
					s6.3,2.8,6.3,6.3S-42.6,18.8-46.1,18.8z M-34.1,8.5c-1,0-1.8-0.8-1.8-1.8s0.8-1.8,1.8-1.8s1.8,0.8,1.8,1.8S-33.1,8.5-34.1,8.5z
					 M-46.1,8.6c-2.2,0-4,1.8-4,4c0,2.2,1.8,4,4,4c2.2,0,4-1.8,4-4C-42.1,10.4-43.8,8.6-46.1,8.6z"/>
			</g>
		</g>
	</g>
	<rect x="-56.6" y="-1.3" class="st3" width="83" height="24"/>
</g>
</svg>
