<?xml version="1.0" encoding="utf-8"?>
<!-- Generator: Adobe Illustrator 15.1.0, SVG Export Plug-In . SVG Version: 6.00 Build 0)  -->
<!DOCTYPE svg PUBLIC "-//W3C//DTD SVG 1.1//EN" "http://www.w3.org/Graphics/SVG/1.1/DTD/svg11.dtd" [
	<!ENTITY ns_extend "http://ns.adobe.com/Extensibility/1.0/">
	<!ENTITY ns_ai "http://ns.adobe.com/AdobeIllustrator/10.0/">
	<!ENTITY ns_graphs "http://ns.adobe.com/Graphs/1.0/">
	<!ENTITY ns_vars "http://ns.adobe.com/Variables/1.0/">
	<!ENTITY ns_imrep "http://ns.adobe.com/ImageReplacement/1.0/">
	<!ENTITY ns_sfw "http://ns.adobe.com/SaveForWeb/1.0/">
	<!ENTITY ns_custom "http://ns.adobe.com/GenericCustomNamespace/1.0/">
	<!ENTITY ns_adobe_xpath "http://ns.adobe.com/XPath/1.0/">
]>
<svg version="1.1" id="Layer_1" xmlns:x="&ns_extend;" xmlns:i="&ns_ai;" xmlns:graph="&ns_graphs;"
	 xmlns="http://www.w3.org/2000/svg" xmlns:xlink="http://www.w3.org/1999/xlink" x="0px" y="0px" width="89px" height="24px"
	 viewBox="-60.5 -0.5 89 24" style="enable-background:new -60.5 -0.5 89 24;" xml:space="preserve">
<style type="text/css">
<![CDATA[
	.st0{opacity:0.7;}
	.st1{fill:#FF4D4E;}
	.st2{fill:#FFFFFF;}
	.st3{fill:none;}
]]>
</style>
<metadata>
	<sfw  xmlns="&ns_sfw;">
		<slices></slices>
		<sliceSourceBounds  height="24" width="89" x="175" y="238.5" bottomLeftOrigin="true"></sliceSourceBounds>
	</sfw>
</metadata>
<g>
	<g>
		<g class="st0">
			<g>
				<path class="st2" d="M25,18V2c0-1.1-0.9-2-2-2H2C0.9,0,0,0.9,0,2v16c0,1.1,0.9,2,2,2h21C24.1,20,25,19.1,25,18z M2,2h21v16H2V2z
					 M26,3v16c0,1.1-0.9,2-2,2H3c0,1.1,0.9,2,2,2h21c1.1,0,2-0.9,2-2V5C28,3.9,27.1,3,26,3z M13.6,12.3l-3-3.2l-3,5.1l-2.2-2.3L3,17
					h19L17.7,5.8L13.6,12.3z M6,9c1.1,0,2-0.9,2-2S7.1,5,6,5C4.9,5,4,5.9,4,7S4.9,9,6,9z"/>
			</g>
		</g>
		<g>
			<g>
				<path class="st2" d="M-5,18V2c0-1.1-0.9-2-2-2h-21c-1.1,0-2,0.9-2,2v16c0,1.1,0.9,2,2,2h21C-5.9,20-5,19.1-5,18z M-28,2h21v16
					h-21V2z M-4,3v16c0,1.1-0.9,2-2,2h-21c0,1.1,0.9,2,2,2h21c1.1,0,2-0.9,2-2V5C-2,3.9-2.9,3-4,3z M-16.4,12.3l-3-3.2l-3,5.1
					l-2.2-2.3L-27,17h19l-4.3-11.2L-16.4,12.3z M-24,9c1.1,0,2-0.9,2-2s-0.9-2-2-2c-1.1,0-2,0.9-2,2S-25.1,9-24,9z"/>
			</g>
		</g>
		<g>
			<g>
				<path class="st1" d="M-35,18V2c0-1.1-0.9-2-2-2h-21c-1.1,0-2,0.9-2,2v16c0,1.1,0.9,2,2,2h21C-35.9,20-35,19.1-35,18z M-58,2h21
					v16h-21V2z M-34,3v16c0,1.1-0.9,2-2,2h-21c0,1.1,0.9,2,2,2h21c1.1,0,2-0.9,2-2V5C-32,3.9-32.9,3-34,3z M-46.4,12.3l-3-3.2
					l-3,5.1l-2.2-2.3L-57,17h19l-4.3-11.2L-46.4,12.3z M-54,9c1.1,0,2-0.9,2-2s-0.9-2-2-2c-1.1,0-2,0.9-2,2S-55.1,9-54,9z"/>
			</g>
		</g>
	</g>
	<rect x="-60.5" y="-0.5" class="st3" width="89" height="24"/>
</g>
</svg>
