<?xml version="1.0" encoding="utf-8"?>
<!-- Generator: Adobe Illustrator 15.1.0, SVG Export Plug-In . SVG Version: 6.00 Build 0)  -->
<!DOCTYPE svg PUBLIC "-//W3C//DTD SVG 1.1//EN" "http://www.w3.org/Graphics/SVG/1.1/DTD/svg11.dtd" [
	<!ENTITY ns_extend "http://ns.adobe.com/Extensibility/1.0/">
	<!ENTITY ns_ai "http://ns.adobe.com/AdobeIllustrator/10.0/">
	<!ENTITY ns_graphs "http://ns.adobe.com/Graphs/1.0/">
	<!ENTITY ns_vars "http://ns.adobe.com/Variables/1.0/">
	<!ENTITY ns_imrep "http://ns.adobe.com/ImageReplacement/1.0/">
	<!ENTITY ns_sfw "http://ns.adobe.com/SaveForWeb/1.0/">
	<!ENTITY ns_custom "http://ns.adobe.com/GenericCustomNamespace/1.0/">
	<!ENTITY ns_adobe_xpath "http://ns.adobe.com/XPath/1.0/">
]>
<svg version="1.1" id="Layer_1" xmlns:x="&ns_extend;" xmlns:i="&ns_ai;" xmlns:graph="&ns_graphs;"
	 xmlns="http://www.w3.org/2000/svg" xmlns:xlink="http://www.w3.org/1999/xlink" x="0px" y="0px" width="29px" height="24px"
	 viewBox="-0.5 -0.8 29 24" style="enable-background:new -0.5 -0.8 29 24;" xml:space="preserve">
<style type="text/css">
<![CDATA[
	.st0{fill:#FFFFFF;}
	.st1{fill:none;}
]]>
</style>
<metadata>
	<sfw  xmlns="&ns_sfw;">
		<slices></slices>
		<sliceSourceBounds  height="24" width="29" x="235" y="238.5" bottomLeftOrigin="true"></sliceSourceBounds>
	</sfw>
</metadata>
<g>
	<g>
		<path class="st0" d="M2.6,0c1,0,2.1,0,3.2,0c6.3,0,12.7,0,19,0c0.6,0,1,0,1.4,0.2c0.7,0.3,1.3,0.8,1.6,1.6C28,2.2,28,2.6,28,3.2
			c0,5.3,0,10.6,0,15.8c0,0.5,0,1.1-0.1,1.5c-0.1,0.4-0.3,0.8-0.5,1c-0.5,0.6-1.1,1-2.1,1c-2.1,0-4.2,0-6.3,0c-5.3,0-10.5,0-15.8,0
			c-0.6,0-1,0-1.4-0.2c-0.7-0.3-1.3-0.9-1.6-1.6C0,20.3,0,19.9,0,19.3C0,14,0,8.7,0,3.5C0,2.9,0,2.4,0.1,2c0.1-0.4,0.3-0.7,0.5-1
			C1,0.5,1.6,0.1,2.6,0z M2.7,2.9c0,5.6,0,11.3,0,16.9c7.5,0,15,0,22.5,0l0,0c0-5.6,0-11.3,0-16.9C17.7,2.8,10.2,2.8,2.7,2.9
			C2.7,2.8,2.7,2.9,2.7,2.9z"/>
		<path class="st0" d="M5.5,5.8c2.3,0,4.7,0,7,0c0,0.8,0,1.7,0,2.5c-2.3,0-4.7,0-7,0C5.5,7.5,5.5,6.6,5.5,5.8L5.5,5.8z"/>
		<path class="st0" d="M22.3,14.8c0,0.7,0.1,1.3,0.1,2c-2.3,0-4.7,0-7,0c0-0.5,0-1,0.1-1.5c0-0.1,0-0.3,0.1-0.4
			c0.1-0.1,0.3-0.1,0.4-0.1c0.7-0.2,1.3-0.5,1.7-1c0.1-0.2,0.3-0.5,0.3-0.8c0-0.4-0.2-0.7-0.4-1c-0.3-0.4-0.5-0.7-0.6-0.9
			c-0.3-0.6-0.6-1.3-0.6-2.1c-0.1-1.8,0.7-3.1,2.3-3.2c2-0.1,2.7,1.1,2.7,3c0,0.9-0.2,1.7-0.6,2.3c-0.2,0.3-0.4,0.6-0.6,0.9
			c-0.2,0.3-0.4,0.7-0.4,1c0,0.6,0.5,1,0.9,1.2C21.2,14.4,21.7,14.6,22.3,14.8z"/>
		<path class="st0" d="M5.5,10c2.3,0,4.7,0,7,0c0,0.8,0,1.7,0,2.5c-2.3,0-4.7,0-7,0C5.5,11.7,5.5,10.9,5.5,10L5.5,10z"/>
		<path class="st0" d="M5.5,14.2c2.3,0,4.7,0,7,0c0,0.8,0,1.7,0,2.5c-2.3,0-4.7,0-7,0C5.5,15.9,5.5,15.1,5.5,14.2L5.5,14.2z"/>
	</g>
	<rect x="-0.5" y="-0.8" class="st1" width="29" height="24"/>
</g>
</svg>
