<?xml version="1.0" encoding="utf-8"?>
<!-- Generator: Adobe Illustrator 15.1.0, SVG Export Plug-In . SVG Version: 6.00 Build 0)  -->
<!DOCTYPE svg PUBLIC "-//W3C//DTD SVG 1.1//EN" "http://www.w3.org/Graphics/SVG/1.1/DTD/svg11.dtd" [
	<!ENTITY ns_extend "http://ns.adobe.com/Extensibility/1.0/">
	<!ENTITY ns_ai "http://ns.adobe.com/AdobeIllustrator/10.0/">
	<!ENTITY ns_graphs "http://ns.adobe.com/Graphs/1.0/">
	<!ENTITY ns_vars "http://ns.adobe.com/Variables/1.0/">
	<!ENTITY ns_imrep "http://ns.adobe.com/ImageReplacement/1.0/">
	<!ENTITY ns_sfw "http://ns.adobe.com/SaveForWeb/1.0/">
	<!ENTITY ns_custom "http://ns.adobe.com/GenericCustomNamespace/1.0/">
	<!ENTITY ns_adobe_xpath "http://ns.adobe.com/XPath/1.0/">
]>
<svg version="1.1" id="Layer_1" xmlns:x="&ns_extend;" xmlns:i="&ns_ai;" xmlns:graph="&ns_graphs;"
	 xmlns="http://www.w3.org/2000/svg" xmlns:xlink="http://www.w3.org/1999/xlink" x="0px" y="0px" width="51px" height="16px"
	 viewBox="-26 0 51 16" style="enable-background:new -26 0 51 16;" xml:space="preserve">
<style type="text/css">
<![CDATA[
	.st0{fill:#C7C7C7;}
	.st1{fill:#FF4D4E;}
]]>
</style>
<metadata>
	<sfw  xmlns="&ns_sfw;">
		<slices></slices>
		<sliceSourceBounds  height="16" width="51" x="211" y="242.5" bottomLeftOrigin="true"></sliceSourceBounds>
	</sfw>
</metadata>
<g>
	<g>
		<g>
			<path class="st0" d="M0,7h7V0H0V7z M9,7h7V0H9V7z M9,16h7V9H9V16z M0,16h7V9H0V16z M18,0v7h7V0H18z M18,16h7V9h-7V16z"/>
		</g>
	</g>
	<g>
		<g>
			<g>
				<path class="st1" d="M-26,7h7V0h-7V7z M-17,7h7V0h-7V7z M-17,16h7V9h-7V16z M-26,16h7V9h-7V16z M-8,0v7h7V0H-8z M-8,16h7V9h-7
					V16z"/>
			</g>
		</g>
	</g>
</g>
</svg>
