<?xml version="1.0" encoding="utf-8"?>
<!-- Generator: Adobe Illustrator 15.1.0, SVG Export Plug-In . SVG Version: 6.00 Build 0)  -->
<!DOCTYPE svg PUBLIC "-//W3C//DTD SVG 1.1//EN" "http://www.w3.org/Graphics/SVG/1.1/DTD/svg11.dtd" [
	<!ENTITY ns_extend "http://ns.adobe.com/Extensibility/1.0/">
	<!ENTITY ns_ai "http://ns.adobe.com/AdobeIllustrator/10.0/">
	<!ENTITY ns_graphs "http://ns.adobe.com/Graphs/1.0/">
	<!ENTITY ns_vars "http://ns.adobe.com/Variables/1.0/">
	<!ENTITY ns_imrep "http://ns.adobe.com/ImageReplacement/1.0/">
	<!ENTITY ns_sfw "http://ns.adobe.com/SaveForWeb/1.0/">
	<!ENTITY ns_custom "http://ns.adobe.com/GenericCustomNamespace/1.0/">
	<!ENTITY ns_adobe_xpath "http://ns.adobe.com/XPath/1.0/">
]>
<svg version="1.1" id="Layer_1" xmlns:x="&ns_extend;" xmlns:i="&ns_ai;" xmlns:graph="&ns_graphs;"
	 xmlns="http://www.w3.org/2000/svg" xmlns:xlink="http://www.w3.org/1999/xlink" x="0px" y="0px" width="51px" height="16px"
	 viewBox="-27.5 0 51 16" style="enable-background:new -27.5 0 51 16;" xml:space="preserve">
<style type="text/css">
<![CDATA[
	.st0{fill:#C6C6C6;}
	.st1{fill:#FF4D4E;}
]]>
</style>
<metadata>
	<sfw  xmlns="&ns_sfw;">
		<slices></slices>
		<sliceSourceBounds  height="16" width="51" x="209.5" y="242.5" bottomLeftOrigin="true"></sliceSourceBounds>
	</sfw>
</metadata>
<g>
	<g>
		<g>
			<g>
				<path class="st0" d="M-1.5,4H3V0h-4.5V4z M5.3,4h4.5V0H5.3V4z M12.1,4h4.5V0h-4.5V4z M-1.5,10H3V6h-4.5V10z M5.3,10h4.5V6H5.3
					V10z M12.1,10h4.5V6h-4.5V10z M-1.5,16H3v-4h-4.5V16z M5.3,16h4.5v-4H5.3V16z M12.1,16h4.5v-4h-4.5V16z M19,0v4h4.5V0H19z
					 M19,10h4.5V6H19V10z M19,16h4.5v-4H19V16z"/>
			</g>
		</g>
	</g>
	<g>
		<g>
			<path class="st1" d="M-27.5,4h4.5V0h-4.5V4z M-20.7,4h4.5V0h-4.5V4z M-13.9,4h4.5V0h-4.5V4z M-27.5,10h4.5V6h-4.5V10z M-20.7,10
				h4.5V6h-4.5V10z M-13.9,10h4.5V6h-4.5V10z M-27.5,16h4.5v-4h-4.5V16z M-20.7,16h4.5v-4h-4.5V16z M-13.9,16h4.5v-4h-4.5V16z M-7,0
				v4h4.5V0H-7z M-7,10h4.5V6H-7V10z M-7,16h4.5v-4H-7V16z"/>
		</g>
	</g>
</g>
</svg>
